[gd_scene load_steps=2 format=2]

[ext_resource path="res://Player.gd" type="Script" id=1]

[node name="Player" type="Spatial"]
script = ExtResource( 1 )
__meta__ = {
"_edit_lock_": true
}
camera_distance = 7.0

[node name="Label" type="Label" parent="."]
margin_right = 40.0
margin_bottom = 14.0
__meta__ = {
"_edit_lock_": true
}

[node name="Camera" type="Camera" parent="."]
transform = Transform( 0.707107, -0.612372, 0.353554, 0, 0.5, 0.866025, -0.707107, -0.612372, 0.353554, 15, 30, 15 )
far = 801.0
